{
    "name": "acceptance_CascadeDecay_UDS_SR4",
    "title": "Acceptance map in jet counting signal region SR4 for gluino cascade UDS decay models The acceptance is computed as the fraction of events passing the analysis selections applied on MC truth objects.",
    "location": "Data from auxiliary material Figure 08a",
    "keywords": {
        "observables": [
            "ACC/EFF"
        ],
        "cmenergies": [
            "13000"
        ],
        "phrases": [
            "SUSY",
            "Supersymmetry",
            "Proton-Proton Scattering"
        ],
        "reactions": [
            "P P --> GLUINO GLUINO"
        ]
    },
    "images": [
        {
            "name": "EffAccPlots/acceptance_gg_viaN1_UDS_SR4.pdf"
        }
    ],
    "variables": [
        {
            "name": "mg",
            "fancy_name": "m$(\\mathrm{\\tilde{g}})$",
            "in_files": [
                {
                    "name": "EffAccPlots/acceptance_gg_viaN1_UDS_SR4.csv",
                    "decode": "mg",
                    "delimiter": ","
                }
            ],
            "is_independent": true
        },
        {
            "name": "mchi",
            "fancy_name": "m$(\\tilde{\\mathrm{\\chi}})$",
            "in_files": [
                {
                    "name": "EffAccPlots/acceptance_gg_viaN1_UDS_SR4.csv",
                    "decode": "mchi",
                    "delimiter": ","
                }
            ],
            "is_independent": true
        },
        {
            "name": "val",
            "fancy_name": "Acceptance",
            "in_files": [
                {
                    "name": "EffAccPlots/acceptance_gg_viaN1_UDS_SR4.csv",
                    "decode": "val",
                    "delimiter": ","
                }
            ],
            "is_independent": false,
            "transformations":["np.round(val.astype(float),3)"]
        }
    ]
}