{
    "name": "efficiency_CascadeDecay_UDS_SR4",
    "title": "Efficiency map in jet counting signal region SR4 for gluino cascade UDS decay models. The efficiency is calculated as the fraction of events reconstructed after detector interactions and passing the same selections, divided by the acceptance. As a consequence of smeared reconstruction with respect to MC truth, the efficiency can sometimes be greater than 100.",
    "location": "Data from auxiliary material Figure 08b",
    "keywords": {
        "observables": [
            "ACC/EFF"
        ],
        "cmenergies": [
            "13000"
        ],
        "phrases": [
            "SUSY",
            "Supersymmetry",
            "Proton-Proton Scattering"
        ],
        "reactions": [
            "P P --> GLUINO GLUINO"
        ]
    },
    "images": [
        {
            "name": "EffAccPlots/efficiency_gg_viaN1_UDS_SR4.pdf"
        }
    ],
    "variables": [
        {
            "name": "mg",
            "fancy_name": "m$(\\mathrm{\\tilde{g}})$",
            "in_files": [
                {
                    "name": "EffAccPlots/efficiency_gg_viaN1_UDS_SR4.csv",
                    "decode": "mg",
                    "delimiter": ","
                }
            ],
            "is_independent": true
        },
        {
            "name": "mchi",
            "fancy_name": "m$(\\tilde{\\mathrm{\\chi}})$",
            "in_files": [
                {
                    "name": "EffAccPlots/efficiency_gg_viaN1_UDS_SR4.csv",
                    "decode": "mchi",
                    "delimiter": ","
                }
            ],
            "is_independent": true
        },
        {
            "name": "val",
            "fancy_name": "Efficiency",
            "in_files": [
                {
                    "name": "EffAccPlots/efficiency_gg_viaN1_UDS_SR4.csv",
                    "decode": "val",
                    "delimiter": ","
                }
            ],
            "is_independent": false,
            "transformations":["np.round(val.astype(float),1)"]
        }
    ]
}