sr,mg,val
JC_SR2bj_8j180_C85_2b,900,0.06301549318153
JC_SR2bj_8j180_C85_2b,1000,0.10589795847918002
JC_SR2bj_8j180_C85_2b,1100,0.18384106438242
JC_SR2bj_8j180_C85_2b,1200,0.28311576728890003
JC_SR2bj_8j180_C85_2b,1300,0.42766917322456
JC_SR2bj_8j180_C85_2b,1400,0.5799660477541599
JC_SR2bj_8j180_C85_2b,1500,0.7672743343451299
JC_SR2bj_8j180_C85_2b,1600,0.95524274586101
JC_SR2bj_8j180_C85_2b,1700,1.15803799230186
JC_SR2bj_8j180_C85_2b,1800,1.4302285409609
JC_SR2bj_8j180_C85_2b,1900,1.6736321864626698
JC_SR2bj_8j180_C85_2b,2000,1.92926284490075
JC_SR2bj_8j180_C85_2b,2100,2.09578908019887
JC_SR2bj_8j180_C85_2b,2200,2.36711469625566
JC_SR2bj_8j180_C85_2b,2300,2.56325726861653
JC_SR2bj_8j180_C85_2b,2400,2.73710984447982
JC_SR2bj_8j180_C85_2b,2500,3.01059142290596
JC_SR1bj_7j180_C85_2b,900,0.4465773961037
JC_SR1bj_7j180_C85_2b,1000,0.77221346662752
JC_SR1bj_7j180_C85_2b,1100,1.25990615609167
JC_SR1bj_7j180_C85_2b,1200,1.8297575060926101
JC_SR1bj_7j180_C85_2b,1300,2.55126346128986
JC_SR1bj_7j180_C85_2b,1400,3.2834310237907998
JC_SR1bj_7j180_C85_2b,1500,4.03620911667956
JC_SR1bj_7j180_C85_2b,1600,4.78190659577517
JC_SR1bj_7j180_C85_2b,1700,5.56233452061582
JC_SR1bj_7j180_C85_2b,1800,6.376081327646619
JC_SR1bj_7j180_C85_2b,1900,7.132600714162531
JC_SR1bj_7j180_C85_2b,2000,7.855671551199
JC_SR1bj_7j180_C85_2b,2100,8.45370337549158
JC_SR1bj_7j180_C85_2b,2200,8.95773562080813
JC_SR1bj_7j180_C85_2b,2300,9.44300707141456
JC_SR1bj_7j180_C85_2b,2400,9.99160196456255
JC_SR1bj_7j180_C85_2b,2500,10.55805679019189
JC_SR5_8j210_C85,900,0.019789363502329998
JC_SR5_8j210_C85,1000,0.041396624419700004
JC_SR5_8j210_C85,1100,0.06833250929382001
JC_SR5_8j210_C85,1200,0.10559835509974
JC_SR5_8j210_C85,1300,0.17620424602966
JC_SR5_8j210_C85,1400,0.25794902667689
JC_SR5_8j210_C85,1500,0.34731488487659
JC_SR5_8j210_C85,1600,0.46485793464194997
JC_SR5_8j210_C85,1700,0.58546199497802
JC_SR5_8j210_C85,1800,0.7705268338996399
JC_SR5_8j210_C85,1900,0.92351045320735
JC_SR5_8j210_C85,2000,1.0708675969755201
JC_SR5_8j210_C85,2100,1.22062313768792
JC_SR5_8j210_C85,2200,1.40744936368299
JC_SR5_8j210_C85,2300,1.5834203534284101
JC_SR5_8j210_C85,2400,1.73678157784326
JC_SR5_8j210_C85,2500,1.9303855909691099
JC_SR4_8j180_C85,900,0.07511399091786
JC_SR4_8j180_C85,1000,0.12827153153568
JC_SR4_8j180_C85,1100,0.21969306407329
JC_SR4_8j180_C85,1200,0.33320976313918
JC_SR4_8j180_C85,1300,0.50012570841559
JC_SR4_8j180_C85,1400,0.66379981293658
JC_SR4_8j180_C85,1500,0.88629895363417
JC_SR4_8j180_C85,1600,1.09266926793686
JC_SR4_8j180_C85,1700,1.3177879232434
JC_SR4_8j180_C85,1800,1.62010126239937
JC_SR4_8j180_C85,1900,1.88260689360746
JC_SR4_8j180_C85,2000,2.14294373260666
JC_SR4_8j180_C85,2100,2.3491977910002197
JC_SR4_8j180_C85,2200,2.60378563385852
JC_SR4_8j180_C85,2300,2.82949728783042
JC_SR4_8j180_C85,2400,3.03098738761917
JC_SR4_8j180_C85,2500,3.3172485823283298
JC_SR3_7j240_C90,900,0.02882037174195
JC_SR3_7j240_C90,1000,0.06458128771893
JC_SR3_7j240_C90,1100,0.13162385812627
JC_SR3_7j240_C90,1200,0.21766801596141
JC_SR3_7j240_C90,1300,0.34746465718692
JC_SR3_7j240_C90,1400,0.51668440262689
JC_SR3_7j240_C90,1500,0.7437181266399701
JC_SR3_7j240_C90,1600,0.9545528357857099
JC_SR3_7j240_C90,1700,1.18430792072679
JC_SR3_7j240_C90,1800,1.45003745191657
JC_SR3_7j240_C90,1900,1.7378908606596501
JC_SR3_7j240_C90,2000,2.02790614901122
JC_SR3_7j240_C90,2100,2.2619989431351897
JC_SR3_7j240_C90,2200,2.5279774732519797
JC_SR3_7j240_C90,2300,2.7401280744518397
JC_SR3_7j240_C90,2400,3.04344782760757
JC_SR3_7j240_C90,2500,3.31354550231754
JC_SR2_7j220_C90,900,0.06260700226784
JC_SR2_7j220_C90,1000,0.13559197233227
JC_SR2_7j220_C90,1100,0.24443431459502002
JC_SR2_7j220_C90,1200,0.38614987331392003
JC_SR2_7j220_C90,1300,0.59340754315334
JC_SR2_7j220_C90,1400,0.84182907460588
JC_SR2_7j220_C90,1500,1.1489060901718
JC_SR2_7j220_C90,1600,1.41493808276141
JC_SR2_7j220_C90,1700,1.72994750747462
JC_SR2_7j220_C90,1800,2.05560858501849
JC_SR2_7j220_C90,1900,2.39619589576211
JC_SR2_7j220_C90,2000,2.77089966911003
JC_SR2_7j220_C90,2100,3.03692622610807
JC_SR2_7j220_C90,2200,3.2646320517658105
JC_SR2_7j220_C90,2300,3.5073397551611296
JC_SR2_7j220_C90,2400,3.83187714800622
JC_SR2_7j220_C90,2500,4.0933510492841805
JC_SR1_7j180_C90,900,0.28866913174539
JC_SR1_7j180_C90,1000,0.50800016551008
JC_SR1_7j180_C90,1100,0.82419353464687
JC_SR1_7j180_C90,1200,1.1745547306277
JC_SR1_7j180_C90,1300,1.61342830890874
JC_SR1_7j180_C90,1400,2.05732673932325
JC_SR1_7j180_C90,1500,2.55412718521431
JC_SR1_7j180_C90,1600,2.9720846158959797
JC_SR1_7j180_C90,1700,3.39932926287725
JC_SR1_7j180_C90,1800,3.8654253550773503
JC_SR1_7j180_C90,1900,4.28478817126261
JC_SR1_7j180_C90,2000,4.72295681104997
JC_SR1_7j180_C90,2100,4.99643418337218
JC_SR1_7j180_C90,2200,5.22195814271167
JC_SR1_7j180_C90,2300,5.46237419206831
JC_SR1_7j180_C90,2400,5.77095707715651
JC_SR1_7j180_C90,2500,6.04283796520961
