mg,mchi,val
1000,50,0.03166267753111
1000,200,0.04934000364609
1000,600,0.0933499235016
1000,950,0.02662691960858
1200,50,0.09148293671693
1200,200,0.2084780453521
1200,600,0.49047692704911
1200,1000,0.20735218046405002
1200,1150,0.12319611024645999
1400,50,0.214628835035
1400,200,0.41051290182628
1400,400,0.8567423385374201
1400,600,1.63819494654867
1400,800,1.9565575177727001
1400,1000,1.38358681217327
1400,1200,0.44361821612971997
1400,1350,0.26363804536521
1600,50,0.35784464436656
1600,200,0.78619816570249
1600,400,1.8263552459439498
1600,600,3.3210112896784905
1600,800,5.1384839821408494
1600,1000,4.78764412017681
1600,1200,2.83666682057875
1600,1400,0.64035556339149
1600,1550,0.5224382237866799
1800,50,0.5379146721026901
1800,200,1.34992337145819
1800,400,3.06486947516292
1800,600,5.37647191374144
1800,800,8.49074451405955
1800,1000,10.41473012607539
1800,1200,9.2737060411826
1800,1400,4.86480548795702
1800,1600,1.22035762977118
1800,1750,0.80487522834967
2000,50,0.77542100442245
2000,200,1.6223897650802601
2000,400,4.64576423674003
2000,600,7.8550930491198905
2000,800,12.20320100953292
2000,1000,15.91888087389955
2000,1200,17.13508366950112
2000,1400,12.79980872964276
2000,1600,6.69680738561588
2000,1800,1.69657024008728
2000,1950,1.22498694652775
2200,50,0.95676301311012
2200,200,1.94274287928223
2200,400,5.60632226013821
2200,600,9.45367090567051
2200,800,15.57660945568175
2200,1000,20.763266937742088
2200,1200,23.7262957385744
2200,1400,22.604431018097458
2200,1600,16.82165216296913
2200,1800,8.646837536660119
2200,2000,2.1133390456046
2200,2150,1.41655913603862
2400,50,1.12893153306457
2400,200,2.2032408825471204
2400,400,7.04401720665653
2400,600,11.46388521295117
2400,800,17.741642651587668
2400,1000,24.278399316505688
2400,1200,29.146797418093666
2400,1400,29.96358024130583
2400,1600,26.635777678991
2400,1800,19.73393887853294
2400,2000,10.07328078632667
2400,2200,2.81404649264354
2400,2350,1.79899913763002
