mg,mchi,val
1000,50,84.53538579002338
1000,200,91.11758257699528
1000,600,82.476030133372
1000,950,80.55418295592014
1200,50,81.01440678343442
1200,200,94.59425048062843
1200,600,80.24717109346874
1200,1000,82.83086098310713
1200,1150,78.8763583772968
1400,50,86.92988595551589
1400,200,89.38113944413418
1400,400,83.00284343077166
1400,600,82.43994752633931
1400,800,81.7901048984
1400,1000,79.99184570303647
1400,1200,85.81557312740435
1400,1350,92.73529686053088
1600,50,85.81576432571833
1600,200,82.2557766960673
1600,400,84.25066136081286
1600,600,80.03905539064132
1600,800,81.87708636690311
1600,1000,82.11254308079913
1600,1200,78.18196839702091
1600,1400,86.24568229028313
1600,1550,87.08305234729643
1800,50,88.91726832342208
1800,200,81.24396400080455
1800,400,83.75276261430183
1800,600,87.50791512022714
1800,800,84.07563888108824
1800,1000,83.01099419956729
1800,1200,85.67565418190132
1800,1400,84.15612728921002
1800,1600,80.76432773255549
1800,1750,84.05738694371856
2000,50,88.97345132498748
2000,200,84.78754789593378
2000,400,88.95979494077005
2000,600,84.6758650909559
2000,800,85.98517842199026
2000,1000,87.06475484871216
2000,1200,86.78235850123208
2000,1400,84.7255326508508
2000,1600,84.54988780199294
2000,1800,86.53193393630266
2000,1950,86.16160914914958
2200,50,88.10714210697832
2200,200,84.40419706638946
2200,400,90.49321887010102
2200,600,86.09647498833834
2200,800,88.53438904749646
2200,1000,86.72665939395839
2200,1200,87.94482999951286
2200,1400,88.38559890711772
2200,1600,85.39816007049427
2200,1800,82.4698840422741
2200,2000,86.43734496501511
2200,2150,91.52090570312978
2400,50,87.19901088198213
2400,200,87.78906784042894
2400,400,87.63531372149114
2400,600,87.76455989637675
2400,800,86.73930794341355
2400,1000,87.28250473319076
2400,1200,88.00869020500545
2400,1400,88.19829916414096
2400,1600,89.94912991198511
2400,1800,86.81654167584225
2400,2000,85.4828419127048
2400,2200,84.19968233397526
2400,2350,88.36604663104102
