sr,mg,val
JC_SR2bj_8j180_C85_2b,900,43.22059474314331
JC_SR2bj_8j180_C85_2b,1000,46.67140132986791
JC_SR2bj_8j180_C85_2b,1100,48.764321195768886
JC_SR2bj_8j180_C85_2b,1200,41.73635814826711
JC_SR2bj_8j180_C85_2b,1300,47.02359677447438
JC_SR2bj_8j180_C85_2b,1400,45.60432947072853
JC_SR2bj_8j180_C85_2b,1500,44.173904307969025
JC_SR2bj_8j180_C85_2b,1600,44.227364914656356
JC_SR2bj_8j180_C85_2b,1700,43.5388461991308
JC_SR2bj_8j180_C85_2b,1800,45.53428378664178
JC_SR2bj_8j180_C85_2b,1900,44.30225082899888
JC_SR2bj_8j180_C85_2b,2000,44.208735911340945
JC_SR2bj_8j180_C85_2b,2100,42.94118691776501
JC_SR2bj_8j180_C85_2b,2200,42.07460251474302
JC_SR2bj_8j180_C85_2b,2300,42.39668098310679
JC_SR2bj_8j180_C85_2b,2400,41.33701370552963
JC_SR2bj_8j180_C85_2b,2500,40.75698701366189
JC_SR1bj_7j180_C85_2b,900,45.5501234246594
JC_SR1bj_7j180_C85_2b,1000,45.80013760456093
JC_SR1bj_7j180_C85_2b,1100,47.462518821184204
JC_SR1bj_7j180_C85_2b,1200,45.05035899689919
JC_SR1bj_7j180_C85_2b,1300,46.424809036080916
JC_SR1bj_7j180_C85_2b,1400,45.804735143784114
JC_SR1bj_7j180_C85_2b,1500,45.491385144962074
JC_SR1bj_7j180_C85_2b,1600,45.6124525887202
JC_SR1bj_7j180_C85_2b,1700,44.71073463791046
JC_SR1bj_7j180_C85_2b,1800,44.85715694584347
JC_SR1bj_7j180_C85_2b,1900,43.85045545470017
JC_SR1bj_7j180_C85_2b,2000,43.332646926043886
JC_SR1bj_7j180_C85_2b,2100,42.85122768830353
JC_SR1bj_7j180_C85_2b,2200,41.36194682990832
JC_SR1bj_7j180_C85_2b,2300,41.23497035135655
JC_SR1bj_7j180_C85_2b,2400,40.12835276459377
JC_SR1bj_7j180_C85_2b,2500,39.988493126397195
JC_SR5_8j210_C85,900,67.88322763563063
JC_SR5_8j210_C85,1000,67.29123537292215
JC_SR5_8j210_C85,1100,69.36390905492786
JC_SR5_8j210_C85,1200,73.48660886864484
JC_SR5_8j210_C85,1300,77.62080504756956
JC_SR5_8j210_C85,1400,73.09336969353899
JC_SR5_8j210_C85,1500,74.10710421995472
JC_SR5_8j210_C85,1600,74.37344273741601
JC_SR5_8j210_C85,1700,76.90794237905033
JC_SR5_8j210_C85,1800,74.29395924191753
JC_SR5_8j210_C85,1900,75.49799007815676
JC_SR5_8j210_C85,2000,77.90009312386213
JC_SR5_8j210_C85,2100,78.13853237291804
JC_SR5_8j210_C85,2200,77.8800790317263
JC_SR5_8j210_C85,2300,76.8735573868793
JC_SR5_8j210_C85,2400,79.28595286294782
JC_SR5_8j210_C85,2500,79.6878596684941
JC_SR4_8j180_C85,900,68.9242796070834
JC_SR4_8j180_C85,1000,74.09113205746011
JC_SR4_8j180_C85,1100,74.44233060986822
JC_SR4_8j180_C85,1200,73.62835896996897
JC_SR4_8j180_C85,1300,75.02858717413946
JC_SR4_8j180_C85,1400,76.0697837530046
JC_SR4_8j180_C85,1500,74.92926848450207
JC_SR4_8j180_C85,1600,77.58524975579778
JC_SR4_8j180_C85,1700,76.65993999128696
JC_SR4_8j180_C85,1800,79.93421052398485
JC_SR4_8j180_C85,1900,79.24455559335544
JC_SR4_8j180_C85,2000,80.3124455165468
JC_SR4_8j180_C85,2100,79.60415120722524
JC_SR4_8j180_C85,2200,79.89059685375044
JC_SR4_8j180_C85,2300,81.07641187368651
JC_SR4_8j180_C85,2400,81.58450162169049
JC_SR4_8j180_C85,2500,81.21903272858832
JC_SR3_7j240_C90,900,88.55498794259788
JC_SR3_7j240_C90,1000,73.65337557102484
JC_SR3_7j240_C90,1100,71.43955747424764
JC_SR3_7j240_C90,1200,67.93992462413351
JC_SR3_7j240_C90,1300,71.02435056439742
JC_SR3_7j240_C90,1400,73.44012124973321
JC_SR3_7j240_C90,1500,72.46233157945996
JC_SR3_7j240_C90,1600,75.48489622276851
JC_SR3_7j240_C90,1700,75.477018405129
JC_SR3_7j240_C90,1800,77.79197533923625
JC_SR3_7j240_C90,1900,78.07571529135284
JC_SR3_7j240_C90,2000,79.02675737754905
JC_SR3_7j240_C90,2100,81.8630361804233
JC_SR3_7j240_C90,2200,80.03717217828682
JC_SR3_7j240_C90,2300,80.29570060928481
JC_SR3_7j240_C90,2400,80.33109638977494
JC_SR3_7j240_C90,2500,79.51579277796634
JC_SR2_7j220_C90,900,80.88623846307011
JC_SR2_7j220_C90,1000,71.0103339702089
JC_SR2_7j220_C90,1100,75.00403725040337
JC_SR2_7j220_C90,1200,74.48196409445022
JC_SR2_7j220_C90,1300,75.06774352900705
JC_SR2_7j220_C90,1400,76.06782115493405
JC_SR2_7j220_C90,1500,76.64501994549076
JC_SR2_7j220_C90,1600,78.99209376270943
JC_SR2_7j220_C90,1700,77.98841351330127
JC_SR2_7j220_C90,1800,80.19193678674404
JC_SR2_7j220_C90,1900,79.94519940337754
JC_SR2_7j220_C90,2000,80.20878149214961
JC_SR2_7j220_C90,2100,81.95089103387232
JC_SR2_7j220_C90,2200,82.30806474541667
JC_SR2_7j220_C90,2300,82.1755844753007
JC_SR2_7j220_C90,2400,82.40233719547189
JC_SR2_7j220_C90,2500,81.81643636722103
JC_SR1_7j180_C90,900,74.77727534189323
JC_SR1_7j180_C90,1000,73.04303001459404
JC_SR1_7j180_C90,1100,77.1408466456657
JC_SR1_7j180_C90,1200,76.92804490446564
JC_SR1_7j180_C90,1300,79.39831415759414
JC_SR1_7j180_C90,1400,79.78136560476402
JC_SR1_7j180_C90,1500,80.47655254894346
JC_SR1_7j180_C90,1600,81.62009720087615
JC_SR1_7j180_C90,1700,81.8288758482815
JC_SR1_7j180_C90,1800,82.6583270261048
JC_SR1_7j180_C90,1900,83.74132974752558
JC_SR1_7j180_C90,2000,83.76205307131663
JC_SR1_7j180_C90,2100,84.79146504736642
JC_SR1_7j180_C90,2200,85.43246775157652
JC_SR1_7j180_C90,2300,85.0701289034062
JC_SR1_7j180_C90,2400,85.54792986242722
JC_SR1_7j180_C90,2500,84.07052070941725
